3 SIM – Sistema de Informação sobre Mortalidade – Sistemas de Informações em Saúde do Brasil
…
library(microdatasus)

sim_raw <- fetch_datasus(
  year_start = 2021,
  year_end = 2021,
  uf = "AC",
  information_system = "SIM-DO"
)

sim_p <- process_sim(sim_raw)

sim_p

# A tibble: 5,496 × 111
   ORIGEM TIPOBITO  DTOBITO    HORAOBITO CODMUNNATU DTNASC   IDADE SEXO  RACACOR
   <chr>  <chr>     <chr>      <chr>     <chr>      <chr>    <chr> <chr> <chr>  
 1 1      Não Fetal 2021-03-23 1500      110020     1962-06… 458   Masc… Parda  
 2 1      Não Fetal 2021-03-23 0243      120050     1971-02… 450   Masc… Parda  
 3 1      Não Fetal 2021-03-23 1310      120040     1956-10… 464   Femi… Parda  
 4 1      Não Fetal 2021-04-17 2149      120050     1999-01… 422   Masc… Parda  
 5 1      Não Fetal 2021-01-06 0420      120020     2020-08… 304   Masc… Parda  
 6 1      Não Fetal 2021-02-06 1145      120034     1943-12… 477   Masc… Parda  
 7 1      Não Fetal 2021-02-15 <NA>      120050     1970-06… 450   Masc… Parda  
 8 1      Não Fetal 2021-02-16 0720      120060     1935-01… 486   Masc… Preta  
 9 1      Não Fetal 2021-02-15 1320      120050     1951-04… 469   Femi… Amarela
10 1      Não Fetal 2021-02-13 0700      120050     1957-02… 464   Masc… Parda  
# ℹ 5,486 more rows
# ℹ 102 more variables: ESTCIV <chr>, ESC <chr>, ESC2010 <chr>,
#   SERIESCFAL <chr>, CODMUNRES <chr>, LOCOCOR <chr>, CODESTAB <chr>,
#   ESTABDESCR <chr>, CODMUNOCOR <chr>, IDADEMAE <chr>, ESCMAE <chr>,
#   ESCMAE2010 <chr>, SERIESCMAE <chr>, QTDFILVIVO <chr>, QTDFILMORT <chr>,
#   GRAVIDEZ <chr>, SEMAGESTAC <chr>, GESTACAO <chr>, PARTO <chr>,
#   OBITOPARTO <chr>, PESO <chr>, TPMORTEOCO <chr>, OBITOGRAV <chr>, …
…
