7 SINAN – Sistema de Informação de Agravos de Notificação – Sistemas de Informações em Saúde do Brasil
…
Você pode usar o pacote {microdatasus}.

library(microdatasus)

sinan_raw <- fetch_datasus(
  year_start = 2017,
  year_end = 2017,
  information_system = "SINAN-DENGUE"
)

sinan_p <- process_sinan_dengue(sinan_raw)

sinan_p

# A tibble: 518,483 × 133
   TP_NOT    ID_AGRAVO DT_NOTIFIC SEM_NOT NU_ANO SG_UF_NOT ID_MUNICIP ID_REGIONA
   <chr>     <chr>     <chr>      <chr>   <chr>  <chr>     <chr>      <chr>     
 1 Individu… A90       2017-12-14 201750  2017   Acre      120020     1941      
 2 Individu… A90       2017-12-11 201750  2017   Acre      120020     1941      
 3 Individu… A90       2017-10-20 201742  2017   Acre      120020     1941      
 4 Individu… A90       2017-03-08 201710  2017   Acre      120020     1941      
 5 Individu… A90       2017-12-29 201752  2017   Acre      120020     1941      
 6 Individu… A90       2017-12-14 201750  2017   Acre      120020     1941      
 7 Individu… A90       2017-12-15 201750  2017   Acre      120020     1941      
 8 Individu… A90       2017-12-05 201749  2017   Acre      120020     1941      
 9 Individu… A90       2017-12-01 201748  2017   Acre      120020     1941      
10 Individu… A90       2017-11-29 201748  2017   Acre      120020     1941      
# ℹ 518,473 more rows
# ℹ 125 more variables: ID_UNIDADE <chr>, DT_SIN_PRI <chr>, SEM_PRI <chr>,
#   DT_NASC <chr>, NU_IDADE_N <chr>, CS_SEXO <chr>, CS_GESTANT <chr>,
#   CS_RACA <chr>, CS_ESCOL_N <chr>, SG_UF <chr>, ID_MN_RESI <chr>,
#   ID_RG_RESI <chr>, ID_PAIS <chr>, DT_INVEST <chr>, ID_OCUPA_N <chr>,
#   FEBRE <chr>, MIALGIA <chr>, CEFALEIA <chr>, EXANTEMA <chr>, VOMITO <chr>,
#   NAUSEA <chr>, DOR_COSTAS <chr>, CONJUNTVIT <chr>, ARTRITE <chr>, …
…
